<?xml version="1.0" encoding="UTF-8"?>
<!DOCTYPE svg PUBLIC "-//W3C//DTD SVG 1.0//EN" "http://www.w3.org/TR/2001/REC-SVG-20010904/DTD/svg10.dtd">
<svg width="200" height="100" preserveAspectRatio="xMidYMid meet" zoomAndPan="magnify" version="1.0" contentScriptType="text/ecmascript" contentStyleType="text/css" xmlns:svg="http://www.w3.org/2000/svg" xmlns:xlink="http://www.w3.org/1999/xlink" xmlns="http://www.w3.org/2000/svg"><title content="structured text">UNITED KINGDOM</title><defs><svg id="union-jack" width="2" height="1" overflow="hidden" preserveAspectRatio="xMidYMid meet" zoomAndPan="magnify" version="1.0" contentScriptType="text/ecmascript" contentStyleType="text/css"><g transform="scale(0.033333)"><rect width="60" height="30" fill="#002B7F"/><line x1="0" y1="0" x2="60" y2="30" stroke="white" stroke-width="6"/><line x1="60" y1="0" x2="0" y2="30" stroke="white" stroke-width="6"/><line x1="-2.5" y1="0" x2="27.5" y2="15" stroke="#CE1126" stroke-width="2"/><line x1="60" y1="-1" x2="30" y2="14" stroke="#CE1126" stroke-width="2"/><line x1="62.5" y1="30" x2="32.5" y2="15" stroke="#CE1126" stroke-width="2"/><line x1="0" y1="31" x2="30" y2="16" stroke="#CE1126" stroke-width="2"/><rect x="25" width="10" height="30" fill="white"/><rect y="10" width="60" height="10" fill="white"/><rect x="27" width="6" height="30" fill="#CE1126"/><rect y="12" width="60" height="6" fill="#CE1126"/></g></svg></defs><rect width="100%" height="100%" fill="navy"/>
        
    <g>
        <use xlink:href="#union-jack" transform="scale(100)" xlink:type="simple" xlink:show="embed" xlink:actuate="onLoad"/>
    </g></svg>